﻿1;2;2;;
2;3;5;;
3;25;30;;
4;11;41;;
5;0;41;;
6;93;134;;
7;38;172;;
8;52;224;;
9;109;333;;
10;185;518;;
11;105;623;;
12;208;831;;
13;265;1096;;
14;27;1123;;
15;157;1280;;
16;271;1551;;
17;1500;3051;;
18;0;3051;;
19;733;3784;;
20;1000;4784;;